set terminal png  size 800,800 enhanced font 'Arial,30'

ARGIN = ARG1
set output "fig1.png"

set style line 1 \
    linecolor rgb '#0060ad' \
    linetype 1 linewidth 2 \
    pointtype 7 pointsize 1.5


set title ""

set xlabel "j" font "Arial Italic,30"
set ylabel "e" rotate by 0 font "Arial Italic,30"

set grid

plot ARGIN with linespoints linestyle 1 title ""





