set encoding koi8r

#set size 2.5, 0.85

#set size ratio 1.0

#set term postscript enhanced eps font 'Helvetica,18'
set terminal png  size 800,800 enhanced font 'Arial,30'
    
THIRD=ARG3
#print "script name        : ", ARG0
print "first argument     : ", ARG1
#print "third argument     : ", THIRD
#print "number of arguments: ", ARGC

ARGOUT = 'fig3c.png'
ARGIN = ARG1.'.txt'

set output ARGOUT

MARGX = 5
MARGY = MARGX

#FNARG = 10.1

#set rmargin 5.1
#set lmargin 6.5
#set tmargin 4.1
#set bmargin 4.1



stats ARGIN using 2 nooutput name 'Y_'
stats ARGIN using 1 nooutput name 'X_'

Y1 = Y_min
Y2 = Y_max
X1 = X_min
X2 = X_max

set size ratio (Y2 - Y1)/(X2 - X1)*1.0

X1 = -50
X2 = 50
Y1 = -50
Y2 = 50


#set size ratio 1.4


set tics font "Arial,20"

set ytics 20
set xtics 20

#set xtics offset -3.5,0

#set xtics offset 0,0.2

#set style line 12 lc rgb 'black' lt 1 lw 2
#set grid ls 12

unset key

set title ""


XL_POSX = (X1 + X2)/2
XL_POSY = Y1 - MARGY - 15

YL_POSX = X1 - MARGX - 15
YL_POSY = (Y1 + Y2)/2

FL_POSX = X1 - 5
FL_POSY = Y2 + 2


set label 2 "x" at XL_POSX,XL_POSY font "Arial Italic,20"
set label 1 "y" at YL_POSX,YL_POSY font "Arial Italic,20"

#set label 4 "\zeta" at FL_POSX,FL_POSY font "Arial Italic,30"

#set label 3 "b" at 103.5,105.0 font "Arial,40"

set zrange [-0.25:0.25]
set cbrange [-0.25:0.25]

#set xr [X1:X2]
#set yr [Y1:Y2]

set xr [X1-MARGX:X2+MARGX]
set yr [Y1-MARGY:Y2+MARGY]

# rotate by 90 font

set pal defined (1 '#00008f', 8 '#0000ff', 24 '#00ffff', 40 '#ffff00', 56 '#ff0000', 64 '#800000')

set hidden3d
set pm3d

set view map

set grid front




# FREE SURFACE

#set arrow front from -50,20 to 50,20 nohead


# RED ARROW

#set style line 101 lc rgb '#FF0000' lt 1 lw 2
#Theads = 'head size 2.5,45 front ls 101'

#set arrow front from 30.9,-0.0 to 35.9,-0.0 @Theads


#set size square

#set palette gray

system(sprintf("rm -f newdata5.txt; awk ' -51 < $1 && $1 < 51 && $2 > -51 && $2 < 51' %s >> newdata5.txt",ARGIN))

plot  "newdata5.txt" using 1:2:3 w image
