set terminal png  size 800,800 enhanced font 'Verdana,10'

THIRD=ARG3
#print "script name        : ", ARG0
print "first argument     : ", ARG1
#print "third argument     : ", THIRD
#print "number of arguments: ", ARGC

ARGOUT = ARG1.'.png'
ARGIN = ARG1.'.txt'

set output ARGOUT


stats ARGIN using 2 nooutput name 'Z_'
stats ARGIN using 1 nooutput name 'X_'

Z1 = Z_min
Z2 = Z_max
X1 = X_min
X2 = X_max

set size ratio (Z2 - Z1)/(X2 - X1)


#set title "Section XY"
set title ""

set xlabel "x" font "Helvetica Bold	,18"
set ylabel "z" font "Helvetica Bold	,18"

set palette gray
#set pal defined (1 '#00008f', 8 '#0000ff', 24 '#00ffff', 40 '#ffff00', 56 '#ff0000', 64 '#800000')

set hidden3d
set pm3d

set view map

#set ytics 1
#set xtics 1

#set zrange [-0.61:0.6]

set zrange [-0.005:0.005]
set cbrange [-0.005:0.005]

set xr [X1:X2]
set yr [Z1:Z2]

set grid

#set dgrid3d 50,50 qnorm 2
#splot ARGIN title "section" with lines

#set view 70,20

splot ARGIN title "" w pm3d





