set terminal png  size 800,800 enhanced font 'Verdana,10'

THIRD=ARG3
#print "script name        : ", ARG0
print "first argument     : ", ARG1
#print "third argument     : ", THIRD
#print "number of arguments: ", ARGC

#ARGOUT = 'FS-side-'ARG1.'.png'

ARGOUT = sprintf("%s%s%s", 'FS-side-', ARG1, '.png')
ARGIN = ARG1.'.txt'

set output ARGOUT

set title "Free surface"

set xlabel " " font "Helvetica Bold	,18"
set ylabel " " font "Helvetica Bold	,18"

#set palette gray
set pal defined (1 '#00008f', 8 '#0000ff', 24 '#00ffff', 40 '#ffff00', 56 '#ff0000', 64 '#800000')

set hidden3d
set pm3d

#set view map

set view 70,20

set zrange [2.998:3.0015]
set cbrange [2.998:3.0015]

set grid


splot ARGIN title "" w pm3d





