set encoding koi8r

set size 1.4, 1.8

#set size ratio 1.0

set term postscript enhanced eps font 'Helvetica,22'
    
THIRD=ARG3
#print "script name        : ", ARG0
print "first argument     : ", ARG1
#print "third argument     : ", THIRD
#print "number of arguments: ", ARGC

ARGOUT = 'fig7a.eps'
ARGIN = ARG1.'.txt'

set output ARGOUT

MARGX = 10
MARGY = MARGX


stats ARGIN using 2 nooutput name 'Y_'
stats ARGIN using 1 nooutput name 'X_'

Y1 = Y_min
Y2 = Y_max
X1 = X_min
X2 = X_max

X1 = 25
X2 = 125
Y1 = -50
Y2 = 50


#set size ratio 1.4


set label 3 "(c)" at -5,-92 font "Helvetica Italic,40"

set tics font "Helvetica,30"

set ytics 25
set xtics 25

#set xtics offset -3.5,0

#set xtics offset 0,0.2

set style line 12 lc rgb 'black' lt 1 lw 2
set grid ls 12

unset key

set title ""


set label 1 "z" at 5,1 font "Verdana Italic,40"
set label 2 "x" at 75,-70 font "Verdana Italic,40"

set label 3 "a" at 128.5,55.0 font "Verdana,40"

set label 4 "v_x" at 35.0,55.5 font "Verdana Italic,40"


set zrange [-0.01:0.025]
set cbrange [-0.01:0.025]

#set xr [X1:X2]
#set yr [Y1:Y2]

set xr [X1-MARGX:X2+MARGX]
set yr [Y1-MARGY:Y2+MARGY]

# rotate by 90 font

set pal defined (1 '#00008f', 8 '#0000ff', 24 '#00ffff', 40 '#ffff00', 56 '#ff0000', 64 '#800000')

set hidden3d
set pm3d

set view map

set grid

set size square

set palette gray

system(sprintf("rm -f newdata5.txt; awk ' 24 < $1 && $1 < 126 && $2 > -51 && $2 < 51' %s >> newdata5.txt",ARGIN))

plot  'newdata5.txt' using 1:2:3 w image
