set terminal png  size 800,800 enhanced font 'Verdana,10'

THIRD=ARG3
#print "script name        : ", ARG0
print "first argument     : ", ARG1
#print "third argument     : ", THIRD
#print "number of arguments: ", ARGC

ARGOUT = ARG1.'_vx.png'
ARGIN = ARG1.'.txt'

set output ARGOUT

#set title "x-component"
set title ""

set xlabel "x" font "Helvetica Bold	,18"
set ylabel "z" font "Helvetica Bold	,18"

set pal defined (1 '#00008f', 8 '#0000ff', 24 '#00ffff', 40 '#ffff00', 56 '#ff0000', 64 '#800000')

set hidden3d
set pm3d

set view map

set grid

#set ytics 1
#set xtics 1

#set zrange [-0.001:0.001]
#set cbrange [-0.001:0.001]

set size square

set palette gray

plot  ARGIN using 1:2:3 w image



