set terminal png  size 800,800 enhanced font 'Verdana,10'

THIRD=ARG3
#print "script name        : ", ARG0
print "first argument     : ", ARG1
#print "third argument     : ", THIRD
#print "number of arguments: ", ARGC

ARGOUT = ARG1.'_vy.png'
ARGIN = ARG1.'.txt'

set output ARGOUT

#set xlabel "A" font "Arial,18"
#set ylabel "d" font "Arial,18"

#set style line 1 lt 1 pt 7

#set xrange [ -2 : 2 ]
#set yrange [ -2: 2]

#set xtics 0.1

#set view 90,0
#splot ARGIN title "section" with linespoints linestyle 1

#splot ARGIN using 1:2:3 with pm3d, \
#      ARGIN using 1:2:3:("") with labels point pt 7


#set palette gray
#set hidden3d
#set pm3d at bs
#set dgrid3d 100,100 qnorm 2

#offset -4

#set ylabel "Y" rotate by 90 font "Helvetica Bold	,18"
#set zlabel "Z" font "Helvetica Bold	,18"





#set view 0,0

#unset key

#set view map

#set pm3d
#splot "sectionXY_f_at_0.txt" with pm3d

#splot "sectionXY_f_at_0.txt" u 1:2:3 with points pointtype 7 palette


#set title "Section XY"
set title ""

set xlabel " " font "Helvetica Bold	,18"
set ylabel " " font "Helvetica Bold	,18"

#set palette gray
set pal defined (1 '#00008f', 8 '#0000ff', 24 '#00ffff', 40 '#ffff00', 56 '#ff0000', 64 '#800000')

set hidden3d
set pm3d

set view map

#set ytics 1
#set xtics 1

#set zrange [-0.61:0.6]

#set zrange [-0.06:0.06]
#set cbrange [-0.06:0.06]

set grid

#set dgrid3d 50,50 qnorm 2
#splot ARGIN title "section" with lines

#set view 70,20

#splot ARGIN title "" w pm3d

#plot ARGIN using 1:2:3 with vectors head filled lt 2


#set xrange [-35:35]
#set yrange [-35:35]

set size square

plot  ARGIN using 1:2:4 w image




